…
Using the data

# head(us.states.vacc %>%
#        filter(date == "2021-08-30") %>%
#   arrange(desc(perc.cases)), n=10)
# 
# us.states.vacc %>%
#   filter(date == "2021-08-30") %>%
#   arrange(!desc(full.vacc.perc)

or.covid.est %>%
  filter(date =="2021-08-30") %>%
  arrange(desc(cases.perc))

## # A tibble: 36 x 7
##    date       county    population cases cases.perc deaths deaths.perc
##    <date>     <chr>          <dbl> <dbl>      <dbl>  <dbl>       <dbl>
##  1 2021-08-30 Umatilla       77950 11476     0.147     117    0.00150 
##  2 2021-08-30 Malheur        30571  4078     0.133      66    0.00216 
##  3 2021-08-30 Morrow         11603  1546     0.133      20    0.00172 
##  4 2021-08-30 Jefferson      24658  2850     0.116      45    0.00182 
##  5 2021-08-30 Grant           7199   652     0.0906      8    0.00111 
##  6 2021-08-30 Baker          16124  1401     0.0869     19    0.00118 
##  7 2021-08-30 Union          26835  2312     0.0862     31    0.00116 
##  8 2021-08-30 Marion        347818 28766     0.0827    356    0.00102 
##  9 2021-08-30 Klamath        68238  5635     0.0826     82    0.00120 
## 10 2021-08-30 Jackson       220944 18228     0.0825    202    0.000914
## # … with 26 more rows

or.covid.est %>%
  filter(date =="2021-08-30") %>%
  arrange(desc(deaths.perc))

## # A tibble: 36 x 7
##    date       county     population cases cases.perc deaths deaths.perc
##    <date>     <chr>           <dbl> <dbl>      <dbl>  <dbl>       <dbl>
##  1 2021-08-30 Malheur         30571  4078     0.133      66     0.00216
##  2 2021-08-30 Jefferson       24658  2850     0.116      45     0.00182
##  3 2021-08-30 Morrow          11603  1546     0.133      20     0.00172
##  4 2021-08-30 Gilliam          1912   123     0.0643      3     0.00157
##  5 2021-08-30 Umatilla        77950 11476     0.147     117     0.00150
##  6 2021-08-30 Hood River      23382  1477     0.0632     35     0.00150
##  7 2021-08-30 Harney           7393   595     0.0805     11     0.00149
##  8 2021-08-30 Wasco           26682  2061     0.0772     37     0.00139
##  9 2021-08-30 Josephine       87487  7172     0.0820    109     0.00125
## 10 2021-08-30 Crook           24404  1769     0.0725     30     0.00123
## # … with 26 more rows
…
